Chapter 4 Text Mining | Intro To Research Computing
…
Let’s get just 9 speeches to make things manageable.

out <- obamaParse(obamalinks[2:12])

speeches <- out %>% group_by(book) %>% 
  mutate(linenumber = row_number()) %>% ungroup()

speeches

## # A tibble: 472 x 3
##    text                                                    book  linenumber
##    <chr>                                                   <chr>      <int>
##  1 "Election Night Victory Speech \n              Grant P… 1              1
##  2 ""                                                      1              2
##  3 "If \n              there is anyone out there who stil… 1              3
##  4 "It’s \n              the answer told by lines that st… 1              4
##  5 "It’s \n              the answer spoken by young and o… 1              5
##  6 "It’s \n              the answer that led those who ha… 1              6
##  7 "It’s \n              been a long time coming, but ton… 1              7
##  8 "I just \n              received a very gracious call … 1              8
##  9 "I want \n              to thank my partner in this jo… 1              9
## 10 "I would \n              not be standing here tonight … 1             10
## # … with 462 more rows
…
https://gerardnico.com/natural_language/term_document

The strengths of tm are that it more closely aligns with the traditional text mining terminology and approaches. There are also a number of tools and packages that work well with tm that do not work well directly with the tidytext approach. But there are now approaches and functions in tidytext that address this concern which can take, for example, a Term Document Matrixx and turn it into a tidy data frame.

4.7.1 Tidy Format

In this class you have encountered previous references the tidyverse and tools such as those found in dplyr. It shouldn’t be surprising then that the tidytext package has text analysis tools that fit in nicely with the tidyverse.

4.7.2 Tidy Up the text

Let’s look at the speeches data frame

speeches

## # A tibble: 472 x 3
##    text                                                    book  linenumber
##    <chr>                                                   <chr>      <int>
##  1 "Election Night Victory Speech \n              Grant P… 1              1
##  2 ""                                                      1              2
##  3 "If \n              there is anyone out there who stil… 1              3
##  4 "It’s \n              the answer told by lines that st… 1              4
##  5 "It’s \n              the answer spoken by young and o… 1              5
##  6 "It’s \n              the answer that led those who ha… 1              6
##  7 "It’s \n              been a long time coming, but ton… 1              7
##  8 "I just \n              received a very gracious call … 1              8
##  9 "I want \n              to thank my partner in this jo… 1              9
## 10 "I would \n              not be standing here tonight … 1             10
## # … with 462 more rows

This looks bad because the text still has junk characters in it. Each row also has a long stringy line of text (in the text column) that is not only hard to read but if we wanted to compute on the text it would be very inconvenient. It might better to first break up the long obnoxious looking line into individual words.

library(tidytext)
tidy_speeches <- speeches %>%
  unnest_tokens(word, text)

tidy_speeches

## # A tibble: 27,849 x 3
##    book  linenumber word    
##    <chr>      <int> <chr>   
##  1 1              1 election
##  2 1              1 night   
##  3 1              1 victory 
##  4 1              1 speech  
##  5 1              1 grant   
##  6 1              1 park    
##  7 1              1 illinois
##  8 1              1 november
##  9 1              1 4       
## 10 1              1 2008    
## # … with 27,839 more rows
…
Let’s also remove numbers from the words.

# remove numbers
nums <- tidy_speeches_nostop %>% 
  filter(str_detect(word, "^[0-9]")) %>% 
  select(word) %>% unique()

tidy_speeches_nostop_nonums <- tidy_speeches_nostop %>% 
  anti_join(nums, by = "word")

tidy_speeches_nostop_nonums %>%
  count(word, sort = TRUE) 

## # A tibble: 2,736 x 2
##    word           n
##    <chr>      <int>
##  1 change       106
##  2 time         105
##  3 people        99
##  4 america       98
##  5 american      94
##  6 country       90
##  7 americans     55
##  8 care          54
##  9 washington    54
## 10 campaign      52
## # … with 2,726 more rows
…
Some of these words need to be “stemmed” - such as “american” and “americans”. There is a function in the snowballC package that will allow us to do this. Here is an example.

some_words <- c("america","americas","american","cat","cats","catastrophe")
wordStem(some_words)

## [1] "america"    "america"    "american"   "cat"        "cat"       
## [6] "catastroph"

tidy_speeches_nostop_nonums_stem <- tidy_speeches_nostop_nonums %>% 
                mutate(word_stem = wordStem(word)) 

tidy_speeches_nostop_nonums_stem

## # A tibble: 9,412 x 4
##    book  linenumber word     word_stem
##    <chr>      <int> <chr>    <chr>    
##  1 1              1 election elect    
##  2 1              1 night    night    
##  3 1              1 victory  victori  
##  4 1              1 speech   speech   
##  5 1              1 grant    grant    
##  6 1              1 park     park     
##  7 1              1 illinois illinoi  
##  8 1              1 november novemb   
##  9 1              3 doubts   doubt    
## 10 1              3 america  america  
## # … with 9,402 more rows
…
# Now Let's get this into tidy text. We will also put a column
# that marks the text with its respective source ("Obama","Romney")

obama_df <- tibble(line=1:length(collected_obama),
                   text=collected_obama,
                   book="obama")

# Let's tidy this up in accordance with tidy principles

tidy_obama_df <- obama_df %>%
  unnest_tokens(word, text)

tidy_obama_df

## # A tibble: 188,999 x 3
##     line book  word       
##    <int> <chr> <chr>      
##  1     1 obama a          
##  2     1 obama couple     
##  3     1 obama of         
##  4     1 obama people     
##  5     1 obama i          
##  6     1 obama just       
##  7     1 obama want       
##  8     1 obama to         
##  9     1 obama acknowledge
## 10     1 obama first      
## # … with 188,989 more rows
…
# Get the total number of words in each speech collection
total_words <- book_words %>% 
  group_by(book) %>% 
  summarize(total = sum(n))

So now we can join these two data frames. What we get for our trouble is way to compute the frequency of a given term within each speech collection for each candidate. This provides information on what terms occur with great frequency and those that do not. We can plot these.

book_words <- left_join(book_words, total_words)

## Joining, by = "book"

book_words

## # A tibble: 11,515 x 4
##    book   word      n  total
##    <chr>  <chr> <int>  <int>
##  1 obama  the    7306 188999
##  2 obama  to     6579 188999
##  3 obama  and    6287 188999
##  4 romney the    4364  90229
##  5 obama  that   4050 188999
##  6 obama  a      3776 188999
##  7 romney and    3420  90229
##  8 obama  of     3361 188999
##  9 obama  you    3341 188999
## 10 obama  in     3115 188999
## # … with 11,505 more rows
…
We could use a list of stop words but it’s not always the most sophisticated approach to adjusting term frequency for commonly used words.

Another approach is to look at a term’s inverse document frequency (idf), which decreases the weight for commonly used words and increases the weight for words that are not used very much in a collection of documents. This can be combined with term frequency to calculate a term’s tf-idf (the two quantities multiplied together), the frequency of a term adjusted for how rarely it is used. t-idf similarity

https://www.tidytextmining.com/tfidf.html

The statistic tf-idf is intended to measure how important a word is to a document in a collection (or corpus) of documents, for example, to one novel in a collection of novels or to one website in a collection of websites.

We can use the bind_tf_idf function to compute tf, and idf for us. Furthermore it will bind this information onto a tidy text data frame.

book_words <- book_words %>%
  bind_tf_idf(word, book, n)
book_words

## # A tibble: 11,515 x 7
##    book   word      n  total     tf   idf tf_idf
##    <chr>  <chr> <int>  <int>  <dbl> <dbl>  <dbl>
##  1 obama  the    7306 188999 0.0387     0      0
##  2 obama  to     6579 188999 0.0348     0      0
##  3 obama  and    6287 188999 0.0333     0      0
##  4 romney the    4364  90229 0.0484     0      0
##  5 obama  that   4050 188999 0.0214     0      0
##  6 obama  a      3776 188999 0.0200     0      0
##  7 romney and    3420  90229 0.0379     0      0
##  8 obama  of     3361 188999 0.0178     0      0
##  9 obama  you    3341 188999 0.0177     0      0
## 10 obama  in     3115 188999 0.0165     0      0
## # … with 11,505 more rows

Let’s look at a sorted list get the high tf_idf words

book_words %>%
  select(-total) %>%
  arrange(desc(tf_idf))

## # A tibble: 11,515 x 6
##    book   word            n       tf   idf   tf_idf
##    <chr>  <chr>       <int>    <dbl> <dbl>    <dbl>
##  1 romney в             106 0.00117  0.693 0.000814
##  2 obama  boo           200 0.00106  0.693 0.000733
##  3 romney enterprise     57 0.000632 0.693 0.000438
##  4 romney president's    55 0.000610 0.693 0.000423
##  5 obama  250,000       107 0.000566 0.693 0.000392
##  6 obama  bargain       100 0.000529 0.693 0.000367
##  7 obama  michelle       98 0.000519 0.693 0.000359
##  8 romney nations        44 0.000488 0.693 0.000338
##  9 obama  outstanding    82 0.000434 0.693 0.000301
## 10 romney iran           38 0.000421 0.693 0.000292
## # … with 11,505 more rows
…
