Chapter 5 Twitter - Social Media | Intro To Research Computing
…
#

bi_tidy_copd_df_separated_words <-  bi_tidy_copd_df %>% 
  separate(paired_words, c("word1", "word2"), sep = " ")

swords <- c("copd","patients","disease","health","chronic",
            "pulmonary","obstructive","lung","1","2")

bi_copd_tweets_filtered <- bi_tidy_copd_df_separated_words %>%
  filter(!word1 %in% c(stop_words$word,swords)) %>%
  filter(!word2 %in% c(stop_words$word,swords))

> bi_copd_tweets_filtered
# A tibble: 9,078 x 3
    line word1       word2    
   <int> <chr>       <chr>    
 1     1 6           haha     
 2     1 psychiatric disorders
 3     1 disorders   addiction
 4     1 addiction   pain     
 5     1 infectious  diseases 
 6     3 run         speed    
 7     3 speed       walk     
 8     3 walk        cycle    
 9     3 cycle       workout  
10     3 canada      army     
# … with 9,068 more rows

copd_bi_words_counts <- bi_copd_tweets_filtered %>%
  count(word1,word2,sort=TRUE)

> copd_bi_words_counts
# A tibble: 7,388 x 3
   word1        word2            n
   <chr>        <chr>        <int>
 1 wearables    trial           24
 2 eu           patent          20
 3 heart        failure         19
 4 phase        3               15
 5 3            data            14
 6 immunization program         14
 7 maternal     immunization    14
 8 program      phase           14
 9 quit         smoking         14
10 rsv          maternal        14
# … with 7,378 more rows
…
